<?xml version="1.0" encoding="utf-8"?>
<!-- Generator: Adobe Illustrator 22.1.0, SVG Export Plug-In . SVG Version: 6.00 Build 0)  -->
<svg version="1.1" id="Слой_1" xmlns="http://www.w3.org/2000/svg" xmlns:xlink="http://www.w3.org/1999/xlink" x="0px" y="0px"
	 viewBox="0 0 251.4 86.3" style="enable-background:new 0 0 251.4 86.3;" xml:space="preserve">
<style type="text/css">
	.st0{fill:#616060;}
	.st1{fill:url(#PATH6_1_);}
	.st2{fill:url(#PATH7_1_);}
</style>
<g id="Logo">
	<g>
		<g id="MPATH1">
			<path class="st0" d="M80.8,49.5c-0.1-0.3-0.2-0.9-0.3-1.7c-0.1-0.8-0.1-1.8-0.1-3c0-1.2,0-2.4,0-3.8c0-1.4,0-2.8,0-4.2
				c0-1.4,0-2.8,0.1-4.1c0-1.3,0.1-2.5,0.1-3.5c0-1,0.1-1.8,0.1-2.5c0-0.6,0-0.9,0-1c0.3-0.2,0.6-0.3,0.8-0.4
				c0.2-0.1,0.5-0.2,0.8-0.2c0.2,0,0.4,0,0.6,0.1c0.2,0.1,0.3,0.2,0.3,0.5l0.2,23.7c0,0.3-0.1,0.4-0.3,0.5c-0.2,0.1-0.4,0.1-0.6,0.1
				c-0.3,0-0.6-0.1-0.8-0.2C81.4,49.8,81.1,49.7,80.8,49.5 M101.6,46.1c-0.9,0.7-1.8,1.3-2.8,1.8c-1,0.5-2,1-3,1.3
				c-1,0.3-1.9,0.6-2.8,0.7s-1.8,0.1-2.5-0.1c-0.8-0.2-1.4-0.6-2-1.1c-0.6-0.5-1-1.3-1.3-2.2c-0.3-1.3-0.3-2.5,0.1-3.6
				c0.3-1.1,0.8-2.2,1.5-3.1c0.7-0.9,1.6-1.7,2.6-2.4c1-0.7,2.1-1.2,3.3-1.6c1.2-0.4,2.4-0.6,3.6-0.6c1.2,0,2.4,0.1,3.5,0.5
				c0-0.4,0-1,0-1.7c0-0.7,0-1.4,0-2.1c0-0.7,0-1.5,0-2.1c0-0.7,0-1.2,0.1-1.7c0.1-1,0.4-1.8,0.7-2.3c0.4-0.5,1-0.7,1.8-0.5
				c0,1.5,0,2.9,0,4.2c0,1.3,0,2.5-0.1,3.6c0,1.1-0.1,2.3-0.1,3.4c0,1.1-0.1,2.3-0.1,3.5s0,2.6,0.1,4c0,1.4,0.1,3.1,0.3,4.8
				c0,0.6-0.1,1-0.3,1.2c-0.2,0.2-0.6,0.4-1,0.4c-0.5,0-0.8-0.2-1.1-0.5s-0.4-0.7-0.5-1.1c-0.1-0.4-0.1-0.9-0.1-1.3
				C101.6,46.8,101.6,46.4,101.6,46.1 M89.7,44.9c0,0.9,0.3,1.5,0.8,1.9c0.5,0.4,1.1,0.5,2,0.3c0.4,0,1-0.1,1.9-0.3
				c0.8-0.2,1.7-0.5,2.6-0.9c0.9-0.4,1.8-0.8,2.6-1.2c0.8-0.4,1.4-0.9,1.7-1.3v-4.8c-0.5-0.5-1.1-0.9-1.9-1c-0.8-0.1-1.6-0.1-2.5,0
				c-0.9,0.2-1.7,0.5-2.6,1c-0.9,0.5-1.6,1-2.3,1.7s-1.2,1.4-1.6,2.2C89.8,43.2,89.6,44.1,89.7,44.9 M109.2,45.3
				c-0.2-1.6,0-3.2,0.4-4.7c0.4-1.6,1.1-3,2.1-4.2s2.1-2.2,3.4-3c1.3-0.8,2.8-1.1,4.4-1.1c0.7,0,1.4,0.1,2.3,0.4
				c0.9,0.3,1.6,0.7,2.4,1.3c0.7,0.6,1.3,1.2,1.7,1.9c0.4,0.7,0.6,1.5,0.4,2.3c0,0.4-0.2,0.7-0.6,1c-0.4,0.3-1,0.5-1.7,0.6
				c-0.7,0.2-1.5,0.3-2.5,0.3c-0.9,0.1-1.9,0.1-3,0.2c-1,0-2.1,0.1-3.2,0.1c-1.1,0-2.1,0.1-3,0.2c-0.5,1.5-0.7,2.7-0.5,3.7
				c0.2,1,0.7,1.7,1.4,2.2c0.7,0.5,1.6,0.8,2.7,0.9c1.1,0.1,2.2,0,3.4-0.2c1.2-0.2,2.3-0.6,3.4-1.1c1.1-0.5,2.1-1.1,2.9-1.9
				c0.1,0,0.3,0,0.5,0.1c0.2,0.1,0.4,0.2,0.5,0.3c0.2,0.1,0.3,0.3,0.5,0.4c0.1,0.1,0.2,0.3,0.2,0.4c-0.5,0.8-1.2,1.6-2.2,2.2
				c-1,0.7-2.1,1.2-3.4,1.6c-1.2,0.4-2.5,0.7-3.9,0.8c-1.4,0.1-2.6,0-3.8-0.3s-2.2-0.8-3.1-1.5S109.5,46.6,109.2,45.3 M123.1,37.5
				c-0.1-0.7-0.4-1.3-0.9-1.7c-0.5-0.4-1.1-0.6-1.7-0.7c-0.7-0.1-1.4-0.1-2.1,0s-1.4,0.3-2.1,0.6c-0.6,0.3-1.2,0.6-1.6,1
				c-0.4,0.4-0.6,0.7-0.7,1.1L123.1,37.5 M145.7,44.1c-0.6,0.9-1.2,1.7-2,2.4c-0.7,0.7-1.6,1.3-2.4,1.8c-0.9,0.5-1.8,0.9-2.9,1.1
				s-2.1,0.3-3.3,0.2c-0.4,0-0.8,0-1.3-0.1c-0.5-0.1-0.9-0.3-1.3-0.5c-0.4-0.2-0.7-0.5-1-0.8c-0.3-0.4-0.4-0.8-0.4-1.3
				c-0.2-1.1-0.2-2.2,0.2-3.4c0.3-1.2,0.8-2.3,1.5-3.4c0.7-1.1,1.5-2.2,2.5-3.2c1-1,2-1.8,3.1-2.5c1.1-0.7,2.2-1.2,3.3-1.5
				c1.1-0.3,2.2-0.4,3.3-0.2c0.8,0,1.4,0.3,1.9,0.8c0.4,0.5,0.8,1.2,1,2.1c0.2,0.9,0.4,1.9,0.4,3.1c0,1.2,0.1,2.4,0.1,3.6
				c0,1.3,0,2.5,0.1,3.8c0,1.3,0.1,2.4,0.3,3.5c0,0-0.1,0.2-0.3,0.4c-0.2,0.2-0.4,0.4-0.6,0.5c-0.3,0.1-0.5,0.1-0.9,0.1
				c-0.3-0.1-0.6-0.3-1-0.8c-0.1-0.2-0.2-0.5-0.2-1c0-0.5,0-1,0-1.6c0-0.6,0-1.1,0-1.6C145.8,44.7,145.7,44.3,145.7,44.1
				 M143.8,35.2c-0.8-0.1-1.5,0.1-2.4,0.4s-1.6,0.7-2.4,1.2c-0.8,0.5-1.5,1.2-2.2,1.9s-1.3,1.5-1.8,2.2c-0.5,0.8-0.9,1.5-1.2,2.3
				c-0.3,0.8-0.4,1.5-0.4,2.1c0,0.6,0.2,1.2,0.6,1.6c0.4,0.4,1,0.7,1.8,0.9c1.1,0,2.2-0.3,3.2-0.9c1-0.6,2-1.3,2.8-2.2
				c0.8-0.9,1.5-1.9,2.1-2.9c0.6-1.1,1-2.1,1.2-3c0.2-0.9,0.2-1.7,0-2.4C145.1,35.7,144.6,35.3,143.8,35.2 M152.6,26.2
				c0.1-0.3,0.3-0.6,0.6-0.7c0.2-0.2,0.5-0.3,0.7-0.3c0.3,0,0.5,0,0.7,0.1c0.2,0.1,0.4,0.2,0.5,0.5l0.7,23.4c0,0.4-0.1,0.6-0.3,0.8
				c-0.2,0.2-0.5,0.2-0.7,0.2c-0.3,0-0.6,0-0.8-0.2c-0.3-0.1-0.5-0.3-0.7-0.5L152.6,26.2 M174.7,44.1c-0.6,0.9-1.2,1.7-2,2.4
				c-0.7,0.7-1.6,1.3-2.4,1.8c-0.9,0.5-1.8,0.9-2.9,1.1s-2.1,0.3-3.3,0.2c-0.4,0-0.8,0-1.3-0.1c-0.5-0.1-0.9-0.3-1.3-0.5
				c-0.4-0.2-0.7-0.5-1-0.8c-0.3-0.4-0.4-0.8-0.4-1.3c-0.2-1.1-0.2-2.2,0.2-3.4c0.3-1.2,0.8-2.3,1.5-3.4c0.7-1.1,1.5-2.2,2.5-3.2
				c1-1,2-1.8,3.1-2.5c1.1-0.7,2.2-1.2,3.3-1.5s2.2-0.4,3.3-0.2c0.8,0,1.4,0.3,1.9,0.8c0.4,0.5,0.8,1.2,1,2.1
				c0.2,0.9,0.4,1.9,0.4,3.1c0,1.2,0.1,2.4,0.1,3.6c0,1.3,0,2.5,0.1,3.8c0,1.3,0.1,2.4,0.3,3.5c0,0-0.1,0.2-0.3,0.4
				c-0.2,0.2-0.4,0.4-0.6,0.5s-0.5,0.1-0.9,0.1c-0.3-0.1-0.6-0.3-1-0.8c-0.1-0.2-0.2-0.5-0.2-1c0-0.5,0-1,0-1.6c0-0.6,0-1.1,0-1.6
				C174.7,44.7,174.7,44.3,174.7,44.1 M172.8,35.2c-0.8-0.1-1.5,0.1-2.4,0.4s-1.6,0.7-2.4,1.2c-0.8,0.5-1.5,1.2-2.2,1.9
				c-0.7,0.7-1.3,1.5-1.8,2.2c-0.5,0.8-0.9,1.5-1.2,2.3c-0.3,0.8-0.4,1.5-0.4,2.1c0,0.6,0.2,1.2,0.6,1.6c0.4,0.4,1,0.7,1.8,0.9
				c1.1,0,2.2-0.3,3.2-0.9c1-0.6,2-1.3,2.8-2.2c0.8-0.9,1.5-1.9,2.1-2.9c0.6-1.1,1-2.1,1.2-3c0.2-0.9,0.2-1.7,0-2.4
				C174.1,35.7,173.6,35.3,172.8,35.2 M181.6,44.4c-0.1-1,0.1-2.1,0.7-3.3c0.6-1.2,1.4-2.4,2.3-3.5c1-1.1,2.1-2.1,3.4-3
				s2.6-1.5,3.9-1.9c1.3-0.4,2.6-0.5,3.8-0.2c1.2,0.3,2.3,1,3.2,2.1c0,0.3-0.1,0.5-0.2,0.7c-0.1,0.2-0.3,0.4-0.5,0.6
				c-0.2,0.2-0.4,0.3-0.6,0.5c-0.2,0.1-0.4,0.3-0.6,0.4c-0.3-0.7-0.8-1.2-1.3-1.5c-0.5-0.3-1.1-0.4-1.8-0.3c-0.7,0-1.4,0.2-2.1,0.6
				c-0.7,0.3-1.5,0.7-2.2,1.2c-0.7,0.5-1.4,1.1-2,1.7c-0.6,0.6-1.2,1.2-1.7,1.9c-0.5,0.7-0.8,1.3-1.1,1.9c-0.3,0.6-0.4,1.2-0.3,1.7
				c0,0.9,0.2,1.5,0.5,2.1c0.3,0.5,0.8,0.9,1.3,1.2c0.5,0.3,1.1,0.5,1.8,0.6c0.7,0.1,1.4,0.1,2.1,0.1c1.5,0,2.8-0.2,4-0.5
				c1.2-0.3,2.2-0.7,3.1-1c0.9-0.4,1.6-0.7,2.1-1c0.6-0.3,1-0.4,1.2-0.3c0.2,0,0.3,0,0.5,0c0.2,0,0.3,0.1,0.4,0.2
				c0.1,0.1,0.2,0.2,0.3,0.4c0,0.2,0,0.4,0,0.7c-0.1,0.4-0.3,0.7-0.8,1.1s-1,0.7-1.7,1c-0.7,0.3-1.5,0.6-2.3,0.8
				c-0.9,0.2-1.7,0.4-2.6,0.6c-0.9,0.2-1.7,0.3-2.4,0.4c-0.8,0.1-1.4,0.1-1.9,0.1c-0.9,0-1.8-0.1-2.8-0.3s-1.9-0.5-2.8-1
				c-0.8-0.4-1.6-1-2.1-1.8C181.9,46.4,181.6,45.4,181.6,44.4 M209.4,33c0.2,2.4,0.3,4.9,0.5,7.6c0.1,2.7,0.3,5.4,0.4,8.2
				c-0.1,0.4-0.3,0.7-0.6,0.8c-0.3,0.2-0.6,0.3-1,0.3c-0.4,0-0.7,0-1-0.2c-0.3-0.1-0.5-0.3-0.6-0.5V33L209.4,33 M214.1,37.7
				c-0.5-0.1-0.8-0.3-0.9-0.6c-0.1-0.3-0.2-0.6-0.1-0.8c0.1-0.3,0.2-0.5,0.4-0.7s0.4-0.3,0.6-0.4h5.5l-0.1-9.1
				c0.1-0.2,0.2-0.4,0.5-0.6c0.3-0.2,0.5-0.2,0.8-0.3c0.3,0,0.6,0,0.9,0.1c0.3,0.1,0.5,0.3,0.7,0.6l0.3,9.1l5.2-0.1
				c0.4,0.2,0.6,0.4,0.7,0.7s0.2,0.6,0.2,0.8c0,0.3-0.1,0.5-0.2,0.7c-0.1,0.2-0.3,0.3-0.4,0.4l-5.4,0.1c0,1.2,0,2.3,0,3.3
				c0,1,0.1,1.9,0.2,2.8c0.1,0.9,0.1,1.8,0.2,2.8c0,1,0.1,2,0.1,3.2c-0.6,0.4-1.1,0.6-1.7,0.6c-0.6,0-1-0.3-1.2-0.7l-0.3-11.9
				L214.1,37.7 M231.3,34.9c-0.1-0.3,0-0.5,0.1-0.7c0.1-0.2,0.3-0.4,0.5-0.6c0.2-0.2,0.4-0.4,0.7-0.5c0.3-0.1,0.5-0.2,0.7-0.3
				L243,47l6.3-14.4c0-0.1,0.2-0.2,0.4-0.2c0.2,0,0.5,0,0.7,0.1c0.3,0.1,0.5,0.2,0.7,0.4s0.3,0.5,0.2,0.9l-11.2,29.6
				c-0.2,0.4-0.5,0.7-0.8,0.8c-0.4,0.1-0.7,0.1-1,0.1c-0.3-0.1-0.6-0.2-0.8-0.5c-0.2-0.2-0.3-0.5-0.2-0.7l4.5-12.6L231.3,34.9
				L231.3,34.9z"/>
		</g>
	</g>
	<path id="PATH2" class="st0" d="M36.6,70c-6.4,0-11.7,1.7-11.7,0s5.2-3.1,11.7-3.1s11.7,1.4,11.7,3.1S43,70,36.6,70L36.6,70z"/>
	<path id="PATH3" class="st0" d="M36.6,75.3c-6,0-10.8,1.6-10.8,0s4.9-2.9,10.8-2.9s10.8,1.3,10.8,2.9
		C47.4,76.9,42.5,75.3,36.6,75.3L36.6,75.3z"/>
	<path id="PATH4" class="st0" d="M36.7,86.3c-3.3,0-6-1.3-6-2.9c0-1.6,12.1-1.6,12.1,0C42.7,85,40,86.3,36.7,86.3L36.7,86.3z"/>
	<path id="PATH5" class="st0" d="M36.6,80.4c-5.4,0-9.7,1.6-9.7,0c0-1.6,4.4-2.9,9.8-2.9c5.4,0,9.8,1.3,9.8,2.9
		C46.4,82,42,80.4,36.6,80.4z"/>
	
		<linearGradient id="PATH6_1_" gradientUnits="userSpaceOnUse" x1="207.9316" y1="69.1235" x2="207.9316" y2="54.1869" gradientTransform="matrix(1 0 0 -1 0 86.5552)">
		<stop  offset="0" style="stop-color:#FEF0A9"/>
		<stop  offset="1" style="stop-color:#EA5978"/>
	</linearGradient>
	<path id="PATH6" class="st1" d="M207.8,18.6c0.5-0.1,0.7,0.5,0.8,0.8c0.5,1,1,2.1,1.5,3.1c1.1,0.2,2.2,0.3,3.3,0.5
		c0.4,0.1,1.1,0,1.2,0.5c0.1,0.4-0.4,0.7-0.7,1c-0.8,0.8-1.6,1.6-2.4,2.4c0.2,1.1,0.4,2.3,0.6,3.5c0.1,0.4,0.2,1-0.3,1.1
		c-0.2,0-0.3,0-0.4-0.1c-0.2-0.1-0.5-0.2-0.7-0.4c-1-0.5-1.9-1-2.9-1.5c-1,0.5-2,1-3,1.6c-0.3,0.2-0.8,0.6-1.2,0.3
		c-0.3-0.3-0.1-0.8,0-1.2c0.2-1.1,0.4-2.2,0.6-3.3c-0.8-0.8-1.6-1.6-2.4-2.4c-0.3-0.2-0.8-0.6-0.7-1c0.1-0.5,0.8-0.4,1.2-0.5
		c1.1-0.2,2.2-0.3,3.3-0.5c0.5-1,1-1.9,1.5-2.9C207.3,19.3,207.4,18.7,207.8,18.6L207.8,18.6z"/>
	
		<linearGradient id="PATH7_1_" gradientUnits="userSpaceOnUse" x1="0.6135" y1="89.2638" x2="68.9292" y2="14.3761" gradientTransform="matrix(1 0 0 -1 0 86.5552)">
		<stop  offset="0" style="stop-color:#FEF0A9"/>
		<stop  offset="1" style="stop-color:#EA5978"/>
	</linearGradient>
	<path id="PATH7" class="st2" d="M35,0c1.2-0.1,2.5,0,3.6,0c0.3,0,0.7,0.1,1.1,0.1c1.8,0.1,3.5,0.4,5.2,0.8c2.3,0.6,4.6,1.3,6.7,2.3
		c1.9,0.9,3.7,2,5.5,3.1c0.6,0.4,1.1,0.8,1.6,1.2c2.4,1.8,4.7,4.1,6.4,6.5c0.6,0.8,1.2,1.6,1.8,2.5c1.9,2.9,3.1,5.9,4.2,9.1
		c0.3,1,0.5,2,0.8,3c0.4,1.8,0.7,3.7,0.8,5.6c0.5,9.6-2.4,18-8.1,25.1c-1,1.2-2.1,2.5-3.3,3.5c-0.9,0.8-1.9,1.4-3,2
		c-1.8,1-3.7,1.6-5.9,1.4c-1.3-0.1-2.6-0.5-3.8-0.8c-0.8-0.2-1.6-0.4-2.2-0.8c-1.5-0.9-2.7-2.5-3.3-4c-0.5-1-0.8-2-1.1-3.1
		c-0.3-1.2-0.4-2.6-0.5-3.9c-0.2-2.3-0.4-4.5-0.4-6.9c1.2,0.6,2.5,1.2,3.7,1.9c0.5,0.3,1.1,0.7,1.6,0.4c1.1-0.5,0.7-1.9,0.5-2.8
		c-0.4-2.7-1-5.4-1.5-8.1c1.9-1.9,3.7-3.8,5.7-5.6c0.6-0.6,1.9-1.3,1.7-2.3c-0.2-1.2-1.8-1.1-2.8-1.2c-1-0.1-2-0.3-2.9-0.4
		c-1.7-0.3-3.4-0.4-5-0.8c-1.2-2.3-2.4-4.7-3.5-7c-0.3-0.5-0.5-1.1-0.8-1.6c-0.2-0.3-0.5-0.6-0.8-0.7c-1.1-0.3-1.7,1.2-2,1.9
		c-0.4,1-0.9,1.9-1.4,2.8c-0.8,1.6-1.5,3.1-2.3,4.7c-1.8,0.4-3.7,0.6-5.6,0.8c-0.8,0.1-1.6,0.3-2.3,0.4c-0.9,0.1-2.3,0-2.7,1
		c-0.4,1,0.9,1.8,1.5,2.4c2,1.8,3.9,3.7,5.8,5.7c-0.5,2.7-0.9,5.4-1.4,8.1c-0.2,0.9-0.7,2.3,0.4,2.8c0.6,0.3,1.3-0.2,1.8-0.4
		c1.2-0.7,2.4-1.3,3.6-1.9c0,1.4-0.1,2.9-0.2,4.3c0,0.9-0.1,1.8-0.2,2.7c-0.1,0.9-0.2,1.7-0.3,2.6c-0.2,1.4-0.6,2.8-1.2,4.1
		c-0.4,1-1,1.9-1.8,2.8c-0.3,0.4-0.8,0.9-1.2,1.1c-0.5,0.3-1.2,0.3-1.7,0.5c-1.2,0.3-2.3,0.6-3.5,0.9c-1.1,0.3-2.1,0.5-3.3,0.5
		c-0.8,0-1.7,0.1-2.5-0.2c-3.8-1.1-7-4.7-9.4-7.9c-3.7-5-5.9-10.5-6.8-16.7c-0.5-3.2-0.5-6.9,0-10.1c0.8-5.3,2.6-10.3,5.4-14.7
		c0.8-1.2,1.7-2.5,2.7-3.7C15.4,4.9,24.6,0.5,35,0 M36.9,44.5c0.5,0.3,0.9,0.5,1.4,0.8c0,1.5-0.1,3.1,0,4.6c0.1,1.6,0,3.3,0,4.9
		c0.1,2.9,0.1,5.8,0.1,8.7c-1.1,0-2.2-0.1-3.2,0c0-4.5,0.1-9.1,0.1-13.6c0-1.6,0-3.2,0-4.7C35.8,45.1,36.4,44.8,36.9,44.5L36.9,44.5
		z"/>
</g>
</svg>
