<svg xmlns="http://www.w3.org/2000/svg" width="36.397" height="36.399"
     viewBox="0 0 36.397 36.399">
    <g id="icon" transform="translate(-377.138 -171.557)">
        <g id="Group_99" data-name="Group 99">
            <g id="Group_98" data-name="Group 98">
                <path id="Path_116" data-name="Path 116"
                      d="M406.57,182.132a.711.711,0,0,0,.711-.711V173.69a2.136,2.136,0,0,0-2.133-2.133H379.271a2.136,2.136,0,0,0-2.133,2.133v32.133a2.136,2.136,0,0,0,2.133,2.133h25.877a2.136,2.136,0,0,0,2.133-2.133v-5.237a.711.711,0,1,0-1.422,0v5.237a.712.712,0,0,1-.711.711H379.271a.712.712,0,0,1-.711-.711V173.69a.712.712,0,0,1,.711-.711h25.877a.712.712,0,0,1,.711.711v7.731A.711.711,0,0,0,406.57,182.132Z"
                      fill="#fff"/>
            </g>
        </g>
        <g id="Group_101" data-name="Group 101">
            <g id="Group_100" data-name="Group 100">
                <path id="Path_117" data-name="Path 117"
                      d="M392.209,175.4a6.537,6.537,0,0,0-4.487,11.294.574.574,0,0,0,.077.071,6.526,6.526,0,0,0,8.821,0,.566.566,0,0,0,.076-.071,6.537,6.537,0,0,0-4.487-11.294Zm0,11.659a5.086,5.086,0,0,1-3.091-1.043,3.555,3.555,0,0,1,6.183,0A5.091,5.091,0,0,1,392.209,187.055Zm-1.137-5.4v-.462a1.137,1.137,0,0,1,2.275,0v.462a1.137,1.137,0,1,1-2.275,0Zm5.256,3.319a4.935,4.935,0,0,0-2.094-1.756,2.544,2.544,0,0,0,.535-1.563v-.462a2.56,2.56,0,0,0-5.119,0v.462a2.544,2.544,0,0,0,.535,1.563,4.937,4.937,0,0,0-2.1,1.756,5.119,5.119,0,1,1,8.238,0Z"
                      fill="#fff"/>
            </g>
        </g>
        <g id="Group_103" data-name="Group 103">
            <g id="Group_102" data-name="Group 102">
                <path id="Path_118" data-name="Path 118"
                      d="M396.048,202.7h-3.839a.711.711,0,1,0,0,1.422h3.839a.711.711,0,0,0,0-1.422Z" fill="#fff"/>
            </g>
        </g>
        <g id="Group_105" data-name="Group 105">
            <g id="Group_104" data-name="Group 104">
                <path id="Path_119" data-name="Path 119"
                      d="M396.048,198.714h-10.1a.711.711,0,1,0,0,1.422h10.1a.711.711,0,1,0,0-1.422Z" fill="#fff"/>
            </g>
        </g>
        <g id="Group_107" data-name="Group 107">
            <g id="Group_106" data-name="Group 106">
                <path id="Path_120" data-name="Path 120"
                      d="M396.048,194.733h-10.1a.711.711,0,1,0,0,1.422h10.1a.711.711,0,0,0,0-1.422Z" fill="#fff"/>
            </g>
        </g>
        <g id="Group_109" data-name="Group 109">
            <g id="Group_108" data-name="Group 108">
                <path id="Path_121" data-name="Path 121" d="M383.42,190.96a.712.712,0,0,0-1.215.5.712.712,0,1,0,1.215-.5Z"
                      fill="#fff"/>
            </g>
        </g>
        <g id="Group_111" data-name="Group 111">
            <g id="Group_110" data-name="Group 110">
                <path id="Path_122" data-name="Path 122" d="M383.42,194.941a.712.712,0,1,0,.208.5A.72.72,0,0,0,383.42,194.941Z"
                      fill="#fff"/>
            </g>
        </g>
        <g id="Group_113" data-name="Group 113">
            <g id="Group_112" data-name="Group 112">
                <path id="Path_123" data-name="Path 123" d="M383.42,198.922a.712.712,0,1,0,.208.5A.72.72,0,0,0,383.42,198.922Z"
                      fill="#fff"/>
            </g>
        </g>
        <g id="Group_115" data-name="Group 115">
            <g id="Group_114" data-name="Group 114">
                <path id="Path_124" data-name="Path 124"
                      d="M396.048,190.752h-10.1a.711.711,0,1,0,0,1.422h10.1a.711.711,0,1,0,0-1.422Z" fill="#fff"/>
            </g>
        </g>
        <g id="Group_117" data-name="Group 117">
            <g id="Group_116" data-name="Group 116">
                <path id="Path_125" data-name="Path 125"
                      d="M412.043,180.822a2.986,2.986,0,0,0-4.078,1.093l-8.947,15.5a.7.7,0,0,0-.09.277l-.63,5.64a.711.711,0,0,0,1.128.652l4.57-3.366a.707.707,0,0,0,.194-.217l8.946-15.495A2.989,2.989,0,0,0,412.043,180.822ZM399.891,201.87l.329-2.945,2.058,1.188Zm3.423-2.8-2.709-1.564,7.179-12.434,2.709,1.564ZM411.9,184.19l-.7,1.213-2.709-1.564.7-1.213a1.564,1.564,0,0,1,2.709,1.564Z"
                      fill="#fff"/>
            </g>
        </g>
    </g>
</svg>