<svg xmlns="http://www.w3.org/2000/svg" width="109.22" height="109.22" viewBox="0 0 109.22 109.22">
  <g id="icon" transform="translate(-1516.28 -734.031)">
    <circle id="Ellipse_10" data-name="Ellipse 10" cx="52.11" cy="52.11" r="52.11" transform="translate(1518.78 736.531)" stroke-width="5" stroke="#3c3c3b" stroke-linecap="round" stroke-linejoin="round" fill="none"/>
    <path id="Path_4" data-name="Path 4" d="M1592.95,788.64,1575.533,798.7l-17.417,10.056V768.529l17.417,10.056Z" fill="none" stroke="#3c3c3b" stroke-linecap="round" stroke-linejoin="round" stroke-width="5"/>
  </g>
</svg>
