<svg xmlns="http://www.w3.org/2000/svg" width="10.374" height="18.581" viewBox="0 0 10.374 18.581">
  <path id="Path_4" data-name="Path 4" d="M1030.366,3239.11l7.959,7.959-7.794,7.794" transform="translate(-1028.952 -3237.696)" fill="none" stroke="#b1b1b1" stroke-linecap="round" stroke-linejoin="round" stroke-width="2"/>
</svg>
