<?xml version="1.0" encoding="utf-8"?>
<!-- Generator: Adobe Illustrator 22.1.0, SVG Export Plug-In . SVG Version: 6.00 Build 0)  -->
<svg version="1.1" id="Слой_1" xmlns="http://www.w3.org/2000/svg" xmlns:xlink="http://www.w3.org/1999/xlink" x="0px" y="0px"
	 viewBox="0 0 128.2 128.2" style="enable-background:new 0 0 128.2 128.2;" xml:space="preserve">
<style type="text/css">
	.st0{fill:#EE766A;}
	.st1{fill:#FFFFFF;}
</style>
<g id="icon">
	<circle class="st0" cx="64.1" cy="64.1" r="64.1"/>
	<g>
		<g>
			<g>
				<g>
					<path class="st1" d="M99.4,58.5c0.8-1.2,1.2-2.5,1.2-4v-1.4c0-4-3.3-7.2-7.2-7.2c-2,0-3.8,0.8-5.1,2.1
						c-3.4-10.1-12.9-17.4-24.2-17.4S43.3,37.9,39.9,48c-1.3-1.3-3.1-2.1-5.1-2.1c-4,0-7.2,3.3-7.2,7.2v1.4c0,1.5,0.5,2.9,1.2,4
						c-5,1.1-8.8,5.5-8.8,10.8v3.5c0,1,0.8,1.7,1.7,1.7h9c1,0,1.7-0.8,1.7-1.7s-0.8-1.7-1.7-1.7h-7.2v-1.7c0-4.2,3.4-7.6,7.6-7.6
						h8.2c0.7,2.9,1.8,5.6,3.4,8.1L23,89.4c-2.5,2.5-2.5,6.6,0,9.1c1.3,1.3,2.9,1.9,4.6,1.9c1.7,0,3.3-0.6,4.6-1.9l10.8-10.8
						c0.7-0.7,0.7-1.8,0-2.4c-0.7-0.7-1.8-0.7-2.4,0L29.7,96.1c-1.2,1.2-3.1,1.2-4.3,0c-1.2-1.2-1.2-3.1,0-4.3l19.3-19.3
						c4.7,5.5,11.6,9,19.4,9c12.1,0,22.3-8.5,24.9-19.8h8.2c4.2,0,7.6,3.4,7.6,7.6v1.7H88.6c-1,0-1.7,0.8-1.7,1.7
						c0,1,0.8,1.7,1.7,1.7h17.9c1,0,1.7-0.8,1.7-1.7v-3.5C108.2,64,104.4,59.6,99.4,58.5z M38.6,54.5c0,2.1-1.7,3.8-3.8,3.8
						c-2.1,0-3.8-1.7-3.8-3.8v-1.4c0-2.1,1.7-3.8,3.8-3.8c2.1,0,3.8,1.7,3.8,3.8V54.5z M64.1,78.1c-12.2,0-22-9.9-22-22
						s9.9-22,22-22s22,9.9,22,22S76.3,78.1,64.1,78.1z M97.2,54.5c0,2.1-1.7,3.8-3.8,3.8s-3.8-1.7-3.8-3.8v-1.4
						c0-2.1,1.7-3.8,3.8-3.8s3.8,1.7,3.8,3.8V54.5z"/>
				</g>
			</g>
			<g>
				<g>
					<path class="st1" d="M64.1,37.5c-10.3,0-18.6,8.3-18.6,18.6c0,5.3,2.2,10.1,5.8,13.5c0.1,0.1,0.1,0.1,0.2,0.2
						c3.3,3,7.7,4.9,12.6,4.9s9.2-1.9,12.6-4.9c0.1-0.1,0.1-0.1,0.2-0.2c3.6-3.4,5.8-8.2,5.8-13.5C82.7,45.8,74.4,37.5,64.1,37.5z
						 M64.1,71.2c-3.5,0-6.8-1.2-9.4-3.3c1.8-3.5,5.4-5.6,9.4-5.6c4,0,7.6,2.2,9.4,5.6C70.9,70,67.6,71.2,64.1,71.2z M60.5,55.2
						v-1.3c0-2,1.6-3.6,3.6-3.6s3.6,1.6,3.6,3.6v1.3c0,2-1.6,3.6-3.6,3.6S60.5,57.2,60.5,55.2z M76,65.4c-1.6-2.5-3.9-4.4-6.6-5.5
						c1.1-1.2,1.8-2.9,1.8-4.7v-1.3c0-3.9-3.2-7.1-7.1-7.1S57,50,57,53.9v1.3c0,1.8,0.7,3.4,1.8,4.7c-2.7,1.1-5,3-6.6,5.5
						c-2-2.6-3.3-5.8-3.3-9.4c0-8.4,6.8-15.2,15.2-15.2s15.2,6.8,15.2,15.2C79.3,59.6,78,62.8,76,65.4z"/>
				</g>
			</g>
			<g>
				<g>
					<path class="st1" d="M47.5,80.7c-0.3-0.3-0.8-0.5-1.2-0.5s-0.9,0.2-1.2,0.5c-0.3,0.3-0.5,0.8-0.5,1.2c0,0.5,0.2,0.9,0.5,1.2
						c0.3,0.3,0.8,0.5,1.2,0.5s0.9-0.2,1.2-0.5c0.3-0.3,0.5-0.8,0.5-1.2C48,81.4,47.9,81,47.5,80.7z"/>
				</g>
			</g>
			<g>
				<g>
					<path class="st1" d="M64.1,12.3c-1,0-1.7,0.8-1.7,1.7v5.9c0,1,0.8,1.7,1.7,1.7c1,0,1.7-0.8,1.7-1.7V14
						C65.9,13,65.1,12.3,64.1,12.3z"/>
				</g>
			</g>
			<g>
				<g>
					<path class="st1" d="M65.3,24.3c-0.3-0.3-0.8-0.5-1.2-0.5c-0.5,0-0.9,0.2-1.2,0.5s-0.5,0.8-0.5,1.2c0,0.5,0.2,0.9,0.5,1.2
						c0.3,0.3,0.8,0.5,1.2,0.5c0.5,0,0.9-0.2,1.2-0.5c0.3-0.3,0.5-0.8,0.5-1.2C65.9,25.1,65.7,24.6,65.3,24.3z"/>
				</g>
			</g>
			<g>
				<g>
					<path class="st1" d="M78.7,19c-0.7-0.7-1.8-0.7-2.4,0l-3,3c-0.7,0.7-0.7,1.8,0,2.4c0.3,0.3,0.8,0.5,1.2,0.5s0.9-0.2,1.2-0.5
						l3-3C79.4,20.8,79.4,19.7,78.7,19z"/>
				</g>
			</g>
			<g>
				<g>
					<path class="st1" d="M55,22.1L51.9,19c-0.7-0.7-1.8-0.7-2.4,0c-0.7,0.7-0.7,1.8,0,2.4l3.1,3.1c0.3,0.3,0.8,0.5,1.2,0.5
						c0.4,0,0.9-0.2,1.2-0.5C55.6,23.8,55.6,22.7,55,22.1z"/>
				</g>
			</g>
		</g>
	</g>
</g>
</svg>
